<?xml version="1.0" encoding="UTF-8" standalone="no"?>
<svg
   xmlns:dc="http://purl.org/dc/elements/1.1/"
   xmlns:cc="http://creativecommons.org/ns#"
   xmlns:rdf="http://www.w3.org/1999/02/22-rdf-syntax-ns#"
   xmlns:svg="http://www.w3.org/2000/svg"
   xmlns="http://www.w3.org/2000/svg"
   xmlns:sodipodi="http://sodipodi.sourceforge.net/DTD/sodipodi-0.dtd"
   xmlns:inkscape="http://www.inkscape.org/namespaces/inkscape"
   viewBox="0 0 533.33331 322.01334"
   height="322.01334"
   width="533.33331"
   xml:space="preserve"
   id="svg2"
   version="1.1"
   inkscape:version="0.91 r13725"
   sodipodi:docname="icon1.svg"><sodipodi:namedview
     pagecolor="#ffffff"
     bordercolor="#666666"
     borderopacity="1"
     objecttolerance="10"
     gridtolerance="10"
     guidetolerance="10"
     inkscape:pageopacity="0"
     inkscape:pageshadow="2"
     inkscape:window-width="1366"
     inkscape:window-height="721"
     id="namedview16"
     showgrid="false"
     inkscape:zoom="0.64875002"
     inkscape:cx="-26.204238"
     inkscape:cy="156.38238"
     inkscape:window-x="-4"
     inkscape:window-y="24"
     inkscape:window-maximized="1"
     inkscape:current-layer="svg2" /><metadata
     id="metadata8"><rdf:RDF><cc:Work
         rdf:about=""><dc:format>image/svg+xml</dc:format><dc:type
           rdf:resource="http://purl.org/dc/dcmitype/StillImage" /></cc:Work></rdf:RDF></metadata><defs
     id="defs6" /><g
     transform="matrix(1.3333333,0,0,-1.3333333,0,322.01333)"
     id="g10"
     style="fill:#fdc62b;fill-opacity:0.23529412"><g
       transform="scale(0.1)"
       id="g12"
       style="fill:#fdc62b;fill-opacity:0.23529412"><path
         id="path14"
         style="fill:#fdc62b;fill-opacity:0.23529412;fill-rule:nonzero;stroke:none"
         d="m 602.355,1653.05 c 130.415,0 236.141,104.12 236.141,232.55 0,128.44 -105.726,232.56 -236.141,232.56 -130.421,0 -236.148,-104.12 -236.148,-232.56 0,-128.43 105.727,-232.55 236.148,-232.55" /><path
         id="path16"
         style="fill:#fdc62b;fill-opacity:0.23529412;fill-rule:nonzero;stroke:none"
         d="m 1115.53,2052.07 c -24.21,35.8 -73.29,45.46 -109.62,21.63 -36.336,-23.85 -46.16,-72.18 -21.926,-107.96 64.136,-94.54 83.536,-162.86 83.216,-206.09 -0.35,-32.92 -9.1,-53.61 -23.94,-73.39 -21.98,-29.25 -65.045,-54.24 -112.408,-69.24 -46.614,-15.27 -96.579,-20.74 -119.551,-20.55 -3.942,0 -7.781,-0.37 -11.539,-0.91 -2.496,0.27 -5.016,0.43 -7.594,0.43 h -369.57 c -2.817,0.29 -5.633,0.48 -8.504,0.48 -31.106,-0.51 -108.309,10.2 -164.93,38.67 -28.711,14.01 -52.137,31.66 -67.086,51.12 -14.867,19.8 -23.586,40.47 -23.937,73.39 -0.293,43.26 19.027,111.55 83.242,206.06 24.203,35.75 14.406,84.08 -21.895,107.93 -36.34,23.86 -85.39,14.23 -109.625,-21.54 C 35.3477,1941.89 0.328125,1846.57 0.00390625,1759.63 -0.347656,1694.29 21.9297,1635.7 56.3281,1591.88 108.203,1525.7 179.984,1490.47 245.273,1469.06 c 35.481,-11.3 69.211,-18.47 99.504,-22.81 L 338.441,913.469 228.316,131.238 C 219.434,68.1211 264.195,9.85938 328.301,1.10938 392.383,-7.64063 451.555,36.4492 460.434,99.5391 L 545.152,701.211 H 659.551 L 744.242,99.5391 c 8.906,-63.0899 68.078,-107.17973 132.16,-98.42972 64.11,8.75 108.871,67.01172 99.985,130.12862 L 866.262,913.469 h -0.676 l -5.66,530.211 c 53,5.52 120.113,20.06 186.604,52.05 44.2,21.68 88.19,52 122.48,96.15 34.37,43.85 56.67,102.43 56.3,167.77 -0.29,86.97 -35.37,182.21 -109.78,292.42" /><path
         id="path18"
         style="fill:#fdc62b;fill-opacity:0.23529412;fill-rule:nonzero;stroke:none"
         d="m 2504.47,258.781 -60.43,119.84 -31.37,-54.07 c -27.99,-48.242 -10.98,-109.731 38.03,-137.321 36.86,-20.742 81.31,-16.332 113,7.629 -24.93,15.032 -45.6,36.871 -59.23,63.922" /><path
         id="path20"
         style="fill:#fdc62b;fill-opacity:0.23529412;fill-rule:nonzero;stroke:none"
         d="m 2872.28,710.84 101.75,-34.699 -61.37,-513.813 c -6.6,-55.168 33.55,-105.1874 89.58,-111.6874 56.03,-6.4609 106.83,33.0078 113.43,88.1874 l 78.97,661.332 2.28,6.481 -424.52,144.789 -6.36,-18.11 -132.38,-228.039 109.4,-217.07 129.22,222.629" /><path
         id="path22"
         style="fill:#fdc62b;fill-opacity:0.23529412;fill-rule:nonzero;stroke:none"
         d="m 3196.03,804.012 151.01,429.578 c 0.96,0.35 1.95,0.59 2.87,0.96 l 607.89,252.22 c 35.1,14.55 51.54,54.34 36.79,88.91 -14.76,34.56 -55.2,50.77 -90.31,36.2 l -565.46,-234.59 c -1.1,0.46 -2.17,0.91 -3.3,1.31 l -294.4,100.42 -281.6,506.18 c -18.3,32.88 -60.17,44.95 -93.58,26.94 -33.36,-18.06 -45.62,-59.27 -27.32,-92.14 l 290.65,-522.53 -157.36,-448.169 424.12,-145.289" /><path
         id="path24"
         style="fill:#fdc62b;fill-opacity:0.23529412;fill-rule:nonzero;stroke:none"
         d="m 3068.53,1736.83 c 37.22,105.84 154.51,161.93 261.98,125.27 107.45,-36.66 164.4,-152.18 127.17,-258.02 -37.25,-105.81 -154.54,-161.89 -261.98,-125.24 -107.47,36.66 -164.4,152.16 -127.17,257.99" /><path
         id="path26"
         style="fill:#fdc62b;fill-opacity:0.23529412;fill-rule:nonzero;stroke:none"
         d="m 2536.33,274.359 c 30.25,-59.918 104.1,-84.418 164.95,-54.66 60.86,29.762 85.75,102.481 55.55,162.442 l -362.13,718.349 -1.93,7.55 -525,-128.911 5.58,-21.961 50.21,-843.09 c 4,-66.8163 62.23,-117.79675 130.1,-113.85925 67.81,3.89063 119.6,61.23045 115.6,128.06225 l -40.09,673.25 125.83,30.918 281.33,-558.09" /><path
         id="path28"
         style="fill:#fdc62b;fill-opacity:0.23529412;fill-rule:nonzero;stroke:none"
         d="m 2393.97,1103.07 -135.06,533.4 c 0.75,0.99 1.56,1.85 2.23,2.87 l 444.81,648.22 c 25.69,37.44 15.68,88.26 -22.32,113.57 -38,25.25 -89.6,15.42 -115.31,-22.01 l -413.73,-603.01 c -1.38,-0.26 -2.78,-0.45 -4.19,-0.8 l -364.1,-89.42 -622.25,328.25 c -40.41,21.31 -90.72,6.33 -112.41,-33.44 -21.62,-39.82 -6.41,-89.36 34,-110.69 l 642.3,-338.87 142.16,-555.589 523.87,127.519" /><path
         id="path30"
         style="fill:#fdc62b;fill-opacity:0.23529412;fill-rule:nonzero;stroke:none"
         d="m 1822.21,2259.92 c 132.91,32.63 267.51,-47.02 300.69,-177.89 33.13,-130.9 -47.72,-263.46 -180.63,-296.12 -132.92,-32.63 -267.55,47.01 -300.69,177.91 -33.14,130.88 47.71,263.47 180.63,296.1" /></g></g></svg>