<?xml version="1.0" encoding="UTF-8" standalone="no"?>
<svg
   xmlns:dc="http://purl.org/dc/elements/1.1/"
   xmlns:cc="http://creativecommons.org/ns#"
   xmlns:rdf="http://www.w3.org/1999/02/22-rdf-syntax-ns#"
   xmlns:svg="http://www.w3.org/2000/svg"
   xmlns="http://www.w3.org/2000/svg"
   xmlns:sodipodi="http://sodipodi.sourceforge.net/DTD/sodipodi-0.dtd"
   xmlns:inkscape="http://www.inkscape.org/namespaces/inkscape"
   viewBox="0 0 533.33331 344.61334"
   height="344.61334"
   width="533.33331"
   xml:space="preserve"
   id="svg2"
   version="1.1"
   inkscape:version="0.91 r13725"
   sodipodi:docname="icon2.svg"><sodipodi:namedview
     pagecolor="#ffffff"
     bordercolor="#666666"
     borderopacity="1"
     objecttolerance="10"
     gridtolerance="10"
     guidetolerance="10"
     inkscape:pageopacity="0"
     inkscape:pageshadow="2"
     inkscape:window-width="1366"
     inkscape:window-height="721"
     id="namedview20"
     showgrid="false"
     inkscape:zoom="0.64875002"
     inkscape:cx="21.579961"
     inkscape:cy="169.22382"
     inkscape:window-x="-4"
     inkscape:window-y="24"
     inkscape:window-maximized="1"
     inkscape:current-layer="svg2" /><metadata
     id="metadata8"><rdf:RDF><cc:Work
         rdf:about=""><dc:format>image/svg+xml</dc:format><dc:type
           rdf:resource="http://purl.org/dc/dcmitype/StillImage" /></cc:Work></rdf:RDF></metadata><defs
     id="defs6" /><g
     transform="matrix(1.3333333,0,0,-1.3333333,0,344.61333)"
     id="g10"
     style="fill:#f45452;fill-opacity:0.09803922"><g
       transform="scale(0.1)"
       id="g12"
       style="fill:#f45452;fill-opacity:0.09803922"><path
         id="path14"
         style="fill:#f45452;fill-opacity:0.09803922;fill-rule:nonzero;stroke:none"
         d="m 3653.25,931.852 15.47,-55.454 H 4000 v 55.454 h -346.75" /><path
         id="path16"
         style="fill:#f45452;fill-opacity:0.09803922;fill-rule:nonzero;stroke:none"
         d="M 204.016,931.852 V 876.379 H 375.93 l 32.566,55.473 h -204.48" /><path
         id="path18"
         style="fill:#f45452;fill-opacity:0.09803922;fill-rule:nonzero;stroke:none"
         d="m 2852.42,931.852 -33.35,-55.473 h 456.28 l -149.65,55.473 h -273.28" /><path
         id="path20"
         style="fill:#f45452;fill-opacity:0.09803922;fill-rule:nonzero;stroke:none"
         d="m 2187.57,931.852 c 7.53,-17.52 13.56,-36.043 18.1,-55.473 h 217.22 l 33.33,55.473 h -268.65" /><path
         id="path22"
         style="fill:#f45452;fill-opacity:0.09803922;fill-rule:nonzero;stroke:none"
         d="m 1059.79,931.852 c 7.54,-17.52 13.56,-36.043 18.11,-55.473 h 425.8 l 32.56,55.473 h -476.47" /><path
         id="path24"
         style="fill:#f45452;fill-opacity:0.09803922;fill-rule:nonzero;stroke:none"
         d="m 3398.41,1844.29 c 19.69,-11.84 40.55,-19.97 61.81,-24.74 85.02,-19.02 176.25,17.02 223.61,95.78 59.21,98.44 27.38,226.24 -71.06,285.42 -98.44,59.23 -226.24,27.39 -285.43,-71.04 -47.37,-78.75 -36.42,-176.25 20.22,-242.43 14.18,-16.51 31.15,-31.14 50.85,-42.99" /><path
         id="path26"
         style="fill:#f45452;fill-opacity:0.09803922;fill-rule:nonzero;stroke:none"
         d="m 3621.38,1350.89 c 14.42,36.45 20.69,73.49 20.67,108.69 -0.12,63.29 -19.44,119.82 -45.62,165.67 -24.05,41.31 -52.46,74.32 -85.71,98 -2.96,2.54 -6.11,4.89 -9.54,6.98 l -275.79,165.82 c -2.04,14.93 -3.93,35.28 -3.93,59.41 0.03,61.84 12.21,147.14 63.76,234.26 51.8,87.03 143.11,178.91 313.94,253 37.51,16.21 54.77,59.71 38.55,97.22 -16.17,37.49 -59.7,54.76 -97.19,38.55 -194.72,-83.8 -314.6,-198.08 -382.59,-313.43 -68.22,-115.29 -84.44,-228.6 -84.39,-309.58 0.02,-38.96 3.69,-70.64 7.3,-92.57 L 2304.38,571.719 c -32.52,-54.11 -15.02,-124.321 39.06,-156.848 54.08,-32.519 124.29,-15.039 156.84,39.059 l 415.22,690.45 c 1.96,-45.08 30.35,-86.75 75.34,-103.43 v 0.02 l 373,-138.22 116.65,-417.73 c 14.24,-51.04 60.69,-84.489 111.22,-84.52 10.28,0 20.75,1.391 31.14,4.309 61.46,17.16 97.37,80.902 80.22,142.363 l -132.5,474.538 c -9.98,35.7 -36.38,64.39 -71.14,77.25 l -240.85,89.24 213.81,355.53 c 13.22,-25.54 21.86,-55.23 21.76,-84.16 -0.05,-17.92 -3.06,-35.79 -10.33,-54.23 -8.84,-22.18 -24.65,-46.81 -52.41,-71.97 -10.98,-9.92 -23.75,-19.92 -38.78,-29.87 -18.1,-12.02 -39.54,-23.95 -64.53,-35.62 l -42.15,-70.12 133.86,-49.58 c 14.73,7.67 28.67,15.65 41.85,23.92 37.36,23.47 68.73,49.16 94.18,76.67 29.41,31.79 51.13,65.9 65.32,101.68 0.06,0.16 0.16,0.3 0.22,0.44" /><path
         id="path28"
         style="fill:#f45452;fill-opacity:0.09803922;fill-rule:nonzero;stroke:none"
         d="m 1008.14,911.672 c -15.347,34.988 -38.816,65.84 -70.62,87.058 -0.18,0.11 -0.317,0.239 -0.516,0.34 l -0.027,0.02 c -2.508,1.65 -4.942,3.38 -7.536,4.9 -2.082,1.23 -4.214,2.29 -6.367,3.27 l -240.16,141.08 c -1.867,1.39 -3.816,2.71 -5.867,3.92 h -0.02 c -0.304,0 -6.109,4.34 -11.453,17.86 -5.344,13.2 -9.621,34.05 -9.543,59.71 -0.343,96.43 58.039,252.52 230.539,373.2 29.215,20.56 36.305,60.9 15.754,90.13 -20.511,29.25 -60.875,36.3 -90.129,15.79 C 607.996,1565.2 526.93,1374.14 526.586,1229.83 c 0.086,-39.1 5.91,-75.32 18.828,-107.78 4.922,-12.24 10.988,-24.15 18.387,-35.29 L 342.055,709.238 754.016,578.031 899.691,826.051 c 2.414,-12.742 3.793,-27.153 3.793,-43 0.164,-66.602 -24.808,-157.512 -90.222,-254.231 36,-12.531 63.105,-41.781 72.629,-78.808 l 7.797,-30.453 c 1.562,1.691 3.05,3.382 4.457,5.261 93.64,125.7 134.585,251.84 134.745,358.231 -0.04,47.051 -8.06,90.531 -24.75,128.621" /><path
         id="path30"
         style="fill:#f45452;fill-opacity:0.09803922;fill-rule:nonzero;stroke:none"
         d="m 758.281,1383.3 c 54.067,92.06 172.52,122.87 264.579,68.81 92.05,-54.06 122.85,-172.52 68.77,-264.58 -54.07,-92.07 -172.497,-122.87 -264.556,-68.8 -92.054,54.06 -122.855,172.52 -68.793,264.57" /><path
         id="path32"
         style="fill:#f45452;fill-opacity:0.09803922;fill-rule:nonzero;stroke:none"
         d="m 414.918,454.488 c 10.766,-12.168 24.73,-21.797 41.281,-27.218 h -0.015 L 697.289,348.109 768.168,71.2617 C 779.137,28.4688 817.652,0 859.902,0 867.695,0 875.57,0.960938 883.469,2.99219 934.156,15.9688 964.734,67.582 951.758,118.281 L 868.02,445.41 c -8.04,31.32 -31.567,56.43 -62.243,66.52 l -75.906,24.929 0.188,0.282 L 318.102,668.371 13.2227,149.309 C -13.5977,103.672 1.67188,44.8906 47.3594,18.0391 93.0039,-8.75 151.809,6.53125 178.609,52.1719 L 414.918,454.488" /><path
         id="path34"
         style="fill:#f45452;fill-opacity:0.09803922;fill-rule:nonzero;stroke:none"
         d="m 2135.91,911.672 c -15.34,34.988 -38.83,65.84 -70.62,87.058 -0.17,0.11 -0.32,0.239 -0.51,0.34 l -0.02,0.02 c -2.52,1.65 -4.96,3.38 -7.54,4.9 -2.09,1.23 -4.22,2.29 -6.37,3.27 l -240.17,141.08 c -1.86,1.39 -3.81,2.71 -5.86,3.92 h -0.02 c -0.3,0 -6.11,4.34 -11.45,17.86 -5.35,13.2 -9.62,34.05 -9.55,59.71 -0.34,96.43 58.05,252.52 230.55,373.2 29.2,20.56 36.29,60.9 15.75,90.13 -20.52,29.25 -60.88,36.3 -90.13,15.79 -204.2,-143.75 -285.27,-334.81 -285.61,-479.12 0.08,-39.1 5.91,-75.32 18.82,-107.78 4.93,-12.24 10.99,-24.15 18.39,-35.29 l -221.74,-377.522 411.96,-131.207 145.67,248.02 c 2.41,-12.742 3.8,-27.153 3.8,-43 0.17,-66.602 -24.81,-157.512 -90.22,-254.231 36,-12.531 63.1,-41.781 72.62,-78.808 l 7.8,-30.453 c 1.56,1.691 3.05,3.382 4.46,5.261 93.64,125.7 134.59,251.84 134.76,358.231 -0.05,47.051 -8.07,90.531 -24.77,128.621" /><path
         id="path36"
         style="fill:#f45452;fill-opacity:0.09803922;fill-rule:nonzero;stroke:none"
         d="m 1886.01,1383.33 c 54.06,92.05 172.52,122.87 264.58,68.81 92.05,-54.07 122.85,-172.52 68.77,-264.58 -54.07,-92.05 -172.5,-122.87 -264.56,-68.81 -92.06,54.07 -122.85,172.52 -68.79,264.58" /><path
         id="path38"
         style="fill:#f45452;fill-opacity:0.09803922;fill-rule:nonzero;stroke:none"
         d="m 1542.69,454.488 c 10.76,-12.168 24.73,-21.797 41.28,-27.218 h -0.02 l 241.11,-79.161 70.88,-276.8473 C 1906.91,28.4688 1945.42,0 1987.67,0 c 7.8,0 15.67,0.960938 23.57,2.99219 50.68,12.97661 81.26,64.58981 68.28,115.28881 l -83.73,327.129 c -8.04,31.32 -31.56,56.43 -62.24,66.52 l -75.9,24.929 0.18,0.282 -411.96,131.23 -304.85,-519.039 C 1114.19,103.691 1129.46,44.8906 1175.15,18.0586 1220.8,-8.75 1279.6,6.53125 1306.4,52.1914 l 236.29,402.2966" /></g></g></svg>